// Material1 genrated by blender2ogre 0.6.0

material Material1 
{
    receive_shadows on 

    technique
    {
        pass Material1
        {
            ambient 0.03153447434306145 0.3911980092525482 0.8000000715255737 1.0
            diffuse 0.025227579850369386 0.31295841206548225 0.640000066757203 1.0
            specular 0.024503761902451515 0.15776944160461426 0.5 1.0 12.5
            emissive 0.0 0.0 0.0 1.0

            alpha_to_coverage off
            colour_write on
            cull_hardware clockwise
            depth_check on
            depth_func less_equal
            depth_write on
            illumination_stage 
            light_clip_planes off
            light_scissor off
            lighting on
            normalise_normals off
            polygon_mode solid
            scene_blend one zero
            scene_blend_op add
            shading gouraud
            transparent_sorting on

            texture_unit 
            {
                texture Texture1.jpg
                tex_address_mode wrap
                scale 1.0 1.0
                colour_op modulate
            }
        }
    }
}
